{
    "count": 154,
    "next": "https://www.aqa.science/users/?page=2",
    "previous": null,
    "results": [
        {
            "email": "ibragimhy70@gmail.com",
            "groups": [],
            "url": "https://www.aqa.science/users/3776/",
            "username": "IbragimHuseyn"
        },
        {
            "email": "aa@aa.com",
            "groups": [],
            "url": "https://www.aqa.science/users/3329/",
            "username": "olololo"
        },
        {
            "email": "aa@aa.com",
            "groups": [],
            "url": "https://www.aqa.science/users/3328/",
            "username": "rando"
        },
        {
            "email": "",
            "groups": [],
            "url": "https://www.aqa.science/users/3087/",
            "username": "Serhii_614"
        },
        {
            "email": "",
            "groups": [],
            "url": "https://www.aqa.science/users/3086/",
            "username": "Serhii_159"
        },
        {
            "email": "",
            "groups": [],
            "url": "https://www.aqa.science/users/3055/",
            "username": "Serhii_655"
        },
        {
            "email": "",
            "groups": [],
            "url": "https://www.aqa.science/users/3054/",
            "username": "Serhii_607"
        },
        {
            "email": "",
            "groups": [],
            "url": "https://www.aqa.science/users/3053/",
            "username": "Serhii_148"
        },
        {
            "email": "",
            "groups": [],
            "url": "https://www.aqa.science/users/3044/",
            "username": "Serhii_459"
        },
        {
            "email": "",
            "groups": [],
            "url": "https://www.aqa.science/users/3034/",
            "username": "Serhii_210"
        }
    ]
}{
    "count": 154,
    "next": "https://www.aqa.science/users/?page=3",
    "previous": "https://www.aqa.science/users/",
    "results": [
        {
            "email": "",
            "groups": [],
            "url": "https://www.aqa.science/users/3032/",
            "username": "Serhii_334"
        },
        {
            "email": "",
            "groups": [],
            "url": "https://www.aqa.science/users/3029/",
            "username": "Serhii_823"
        },
        {
            "email": "",
            "groups": [],
            "url": "https://www.aqa.science/users/3003/",
            "username": "Serhii_230"
        },
        {
            "email": "",
            "groups": [],
            "url": "https://www.aqa.science/users/3000/",
            "username": "Serhii_298"
        },
        {
            "email": "",
            "groups": [],
            "url": "https://www.aqa.science/users/2999/",
            "username": "Serhii_485"
        },
        {
            "email": "",
            "groups": [],
            "url": "https://www.aqa.science/users/2821/",
            "username": "Serhii_1444"
        },
        {
            "email": "",
            "groups": [],
            "url": "https://www.aqa.science/users/2820/",
            "username": "Serhii_8859"
        },
        {
            "email": "",
            "groups": [],
            "url": "https://www.aqa.science/users/2819/",
            "username": "Serhii_2619"
        },
        {
            "email": "",
            "groups": [],
            "url": "https://www.aqa.science/users/2818/",
            "username": "Serhii_9978"
        },
        {
            "email": "",
            "groups": [],
            "url": "https://www.aqa.science/users/2817/",
            "username": "Serhii_633"
        }
    ]
}